<svg xmlns="http://www.w3.org/2000/svg" xmlns:xlink="http://www.w3.org/1999/xlink" viewBox="12 11 360 59">
  <defs>
    <filter id="Subtraction_2" x="0" y="0" filterUnits="userSpaceOnUse">
      <feOffset dy="1" input="SourceAlpha"/>
      <feGaussianBlur stdDeviation="4" result="blur"/>
      <feFlood flood-opacity="0.761"/>
      <feComposite operator="in" in2="blur"/>
      <feComposite in="SourceGraphic"/>
    </filter>
  </defs>
  <g transform="matrix(1, 0, 0, 1, 0, 0)" filter="url(#Subtraction_2)">
    <path id="Subtraction_2-2" data-name="Subtraction 2" d="M360-613H0v-59H152.243A29.688,29.688,0,0,0,180.5-651a29.688,29.688,0,0,0,28.256-21H360v59h0Z" transform="translate(12 683)" fill="#9d22ba"/>
  </g>
</svg>
