<?xml version="1.0" encoding="iso-8859-1"?>
<!-- Generator: Adobe Illustrator 19.0.0, SVG Export Plug-In . SVG Version: 6.00 Build 0)  -->
<svg version="1.1" id="Capa_1" xmlns="http://www.w3.org/2000/svg" xmlns:xlink="http://www.w3.org/1999/xlink" x="0px" y="0px"
	 viewBox="0 0 512.001 512.001" style="enable-background:new 0 0 512.001 512.001;" xml:space="preserve">
<path style="fill:#409DE6;" d="M452.267,503.467H59.734c-9.429,0-17.067-7.638-17.067-17.067V25.6
	c0-9.429,7.638-17.067,17.067-17.067h392.533c9.429,0,17.067,7.638,17.067,17.067v460.8
	C469.334,495.829,461.696,503.467,452.267,503.467z"/>
<path style="fill:#8CC4F0;" d="M469.334,128H42.667V25.6c0-9.429,7.638-17.067,17.067-17.067h392.533
	c9.429,0,17.067,7.638,17.067,17.067V128z"/>
<g>
	<path style="fill:#FCB641;" d="M256,93.867L256,93.867c-14.14,0-25.6-11.46-25.6-25.6l0,0c0-14.14,11.46-25.6,25.6-25.6l0,0
		c14.14,0,25.6,11.46,25.6,25.6l0,0C281.6,82.406,270.14,93.867,256,93.867z"/>
	<path style="fill:#FCB641;" d="M418.134,93.867H332.8V59.734c0-9.429,7.638-17.067,17.067-17.067H435.2V76.8
		C435.2,86.229,427.563,93.867,418.134,93.867z"/>
	<path style="fill:#FCB641;" d="M102.4,93.867H76.8V51.2c0-4.71,3.823-8.534,8.534-8.534h25.6v42.667
		C110.934,90.043,107.11,93.867,102.4,93.867z"/>
	<path style="fill:#FCB641;" d="M170.667,93.867h-25.6V51.2c0-4.71,3.823-8.534,8.534-8.534h25.6v42.667
		C179.2,90.043,175.377,93.867,170.667,93.867z"/>
</g>
<circle style="fill:#D9EBFA;" cx="255.996" cy="315.731" r="136.533"/>
<path style="fill:#8CC4F0;" d="M156.826,290.133c11.366-44.169,51.456-76.8,99.174-76.8c56.551,0,102.4,45.849,102.4,102.4
	s-45.849,102.4-102.4,102.4c-47.702,0-87.791-32.623-99.166-76.775"/>
<path style="fill:#FCB641;" d="M128,290.133h59.734c9.429,0,17.067,7.638,17.067,17.067v17.067c0,9.429-7.638,17.067-17.067,17.067
	H128"/>
<path style="fill:#409DE6;" d="M298.701,335.113c-28.45,12.8-22.852,25.25-51.303,38.058c-23.97,10.786-41.899,8.166-63.948,14.704
	c18.543,18.653,44.169,30.259,72.55,30.259c55.373,0,100.37-43.981,102.221-98.91C335.863,327.322,324.028,323.713,298.701,335.113z
	"/>
<g>
	<path style="fill:#8CC4F0;" d="M452.267,503.467H384v-34.133c0-9.429,7.638-17.067,17.067-17.067h68.267V486.4
		C469.334,495.829,461.696,503.467,452.267,503.467z"/>
	<path style="fill:#8CC4F0;" d="M59.734,503.467H128v-34.133c0-9.429-7.638-17.067-17.067-17.067H42.667V486.4
		C42.667,495.829,50.304,503.467,59.734,503.467z"/>
</g>
<path d="M452.267,0H59.734c-14.115,0-25.6,11.486-25.6,25.6V128v324.267V486.4c0,14.114,11.486,25.6,25.6,25.6H128h256h68.267
	c14.114,0,25.6-11.486,25.6-25.6v-34.133V128V25.6C477.867,11.486,466.381,0,452.267,0z M375.467,469.334v25.6H136.533v-25.6
	c0-14.114-11.486-25.6-25.6-25.6H51.2v-307.2h409.6v307.2h-59.734C386.952,443.733,375.467,455.219,375.467,469.334z M51.2,25.6
	c0-4.71,3.831-8.534,8.534-8.534h392.533c4.71,0,8.534,3.823,8.534,8.534v93.867h-409.6L51.2,25.6L51.2,25.6z M59.734,494.933
	c-4.702,0-8.534-3.823-8.534-8.534v-25.6h59.734c4.702,0,8.534,3.823,8.534,8.534v25.6H59.734z M460.8,486.4
	c0,4.71-3.823,8.534-8.534,8.534h-59.734v-25.6c0-4.71,3.823-8.534,8.534-8.534H460.8V486.4z"/>
<path d="M256,34.133c-18.825,0-34.133,15.309-34.133,34.133S237.175,102.4,256,102.4s34.133-15.309,34.133-34.133
	S274.825,34.133,256,34.133z M256,85.333c-9.412,0-17.067-7.655-17.067-17.067S246.588,51.2,256,51.2
	c9.413,0,17.067,7.655,17.067,17.067S265.413,85.333,256,85.333z"/>
<path d="M435.2,34.133h-85.333c-14.114,0-25.6,11.486-25.6,25.6v34.133c0,4.719,3.814,8.534,8.534,8.534h85.333
	c14.114,0,25.6-11.486,25.6-25.6V42.667C443.733,37.947,439.919,34.133,435.2,34.133z M426.667,76.8c0,4.71-3.823,8.534-8.534,8.534
	h-76.8v-25.6c0-4.71,3.823-8.534,8.534-8.534h76.8L426.667,76.8L426.667,76.8z"/>
<path d="M110.934,34.133h-25.6c-9.412,0-17.067,7.655-17.067,17.067v42.667c0,4.719,3.823,8.534,8.534,8.534h25.6
	c9.412,0,17.067-7.655,17.067-17.067V42.667C119.467,37.947,115.644,34.133,110.934,34.133z M85.333,85.333V51.2H102.4l0.009,34.133
	H85.333z"/>
<path d="M179.2,34.133h-25.6c-9.412,0-17.067,7.655-17.067,17.067v42.667c0,4.719,3.823,8.534,8.534,8.534h25.6
	c9.412,0,17.067-7.655,17.067-17.067V42.667C187.733,37.947,183.91,34.133,179.2,34.133z M153.6,85.333V51.2h17.067l0.009,34.133
	H153.6z"/>
<path d="M256,170.667c-79.992,0-145.067,65.076-145.067,145.067S176.008,460.801,256,460.801s145.067-65.076,145.067-145.067
	S335.992,170.667,256,170.667z M129.271,298.667h58.462c4.702,0,8.534,3.823,8.534,8.534v17.067c0,4.71-3.831,8.534-8.534,8.534
	h-58.462c-0.75-5.598-1.272-11.264-1.272-17.067S128.521,304.265,129.271,298.667z M248.345,409.276
	c-0.776-0.06-1.536-0.188-2.304-0.265c-1.758-0.187-3.516-0.384-5.248-0.665c-0.887-0.145-1.766-0.342-2.645-0.512
	c-1.579-0.307-3.148-0.614-4.702-0.999c-0.982-0.239-1.937-0.529-2.91-0.801c-1.399-0.393-2.782-0.794-4.156-1.254
	c-1.109-0.368-2.201-0.777-3.294-1.187c-1.144-0.427-2.278-0.87-3.405-1.339c-1.314-0.554-2.611-1.143-3.9-1.758
	c-0.794-0.376-1.579-0.76-2.356-1.152c-1.587-0.81-3.157-1.663-4.702-2.568c-0.367-0.213-0.734-0.435-1.109-0.657
	c-1.869-1.135-3.703-2.313-5.495-3.576c2.637-0.41,5.291-0.776,7.996-1.152c12.501-1.732,25.429-3.515,40.781-10.436
	c15.855-7.134,22.562-14.54,28.476-21.086c5.495-6.067,10.232-11.297,22.827-16.964c13.235-5.957,22.391-7.492,32.094-9.105
	c4.531-0.768,9.156-1.537,14.216-2.757c-0.017,0.111-0.034,0.221-0.052,0.333c-0.384,2.321-0.878,4.599-1.425,6.853
	c-0.187,0.759-0.385,1.528-0.589,2.278c-0.486,1.809-1.032,3.585-1.621,5.342c-0.452,1.339-0.939,2.662-1.459,3.967
	c-0.461,1.186-0.922,2.364-1.426,3.524c-0.939,2.134-1.937,4.233-3.03,6.272c-0.179,0.342-0.35,0.7-0.529,1.041
	c-10.129,18.492-26.291,33.22-45.824,41.514c-0.034,0.018-0.077,0.034-0.111,0.043c-2.594,1.093-5.248,2.057-7.953,2.919
	c-0.333,0.103-0.666,0.222-0.999,0.324c-2.415,0.742-4.881,1.348-7.365,1.903c-0.572,0.129-1.134,0.281-1.715,0.392
	c-2.338,0.469-4.728,0.802-7.125,1.093c-0.691,0.085-1.365,0.212-2.057,0.281c-3.038,0.307-6.118,0.477-9.233,0.477
	C253.423,409.6,250.872,409.48,248.345,409.276z M331.477,316.962c-10.343,1.724-21.034,3.515-36.275,10.377
	c-15.846,7.134-22.562,14.541-28.475,21.086c-5.495,6.058-10.232,11.298-22.836,16.965c-13.115,5.905-24.294,7.458-36.113,9.088
	c-6.92,0.965-14.072,1.996-21.675,3.884c-7.39-8.244-13.346-17.852-17.494-28.493h19.124c14.114,0,25.6-11.486,25.6-25.6V307.2
	c0-14.114-11.486-25.6-25.6-25.6h-19.132c13.884-35.643,48.333-59.734,87.398-59.734c50.842,0,92.271,40.653,93.73,91.153
	C343.176,314.965,337.434,315.956,331.477,316.962z M256,443.733c-58.743,0-108.245-39.825-123.239-93.867h17.74
	c10.036,31.121,33.024,55.561,62.063,67.909c1.032,0.444,2.082,0.819,3.132,1.229c2.022,0.793,4.07,1.544,6.144,2.21
	c1.306,0.427,2.62,0.81,3.943,1.186c1.937,0.546,3.891,1.032,5.862,1.476c1.348,0.299,2.688,0.606,4.045,0.862
	c2.168,0.401,4.352,0.7,6.554,0.973c1.169,0.145,2.321,0.333,3.49,0.444c3.387,0.325,6.81,0.512,10.266,0.512
	c42.163,0,78.618-23.228,97.357-57.822c0.239-0.444,0.452-0.905,0.683-1.348c1.306-2.492,2.551-5.009,3.669-7.611
	c0.64-1.468,1.186-2.987,1.766-4.498c0.614-1.613,1.246-3.216,1.783-4.863c0.802-2.415,1.469-4.881,2.1-7.364
	c0.204-0.82,0.444-1.621,0.632-2.441c0.725-3.123,1.281-6.298,1.732-9.523c0.034-0.273,0.085-0.546,0.128-0.828
	c0.461-3.49,0.751-7.023,0.879-10.598c0-0.086,0.018-0.17,0.025-0.265c0-0.018-0.008-0.043-0.008-0.059
	c0.043-1.238,0.187-2.458,0.187-3.712c0-61.167-49.767-110.934-110.934-110.934c-48.393,0-90.812,31.274-105.497,76.8h-17.74
	c14.993-54.042,64.495-93.867,123.239-93.867c70.58,0,128,57.421,128,128C384,386.313,326.58,443.733,256,443.733z"/>
<rect x="264.536" y="247.464" width="17.062" height="17.062"/>
<rect x="264.536" y="298.669" width="17.062" height="17.062"/>
<rect x="290.129" y="273.067" width="17.062" height="17.062"/>
<rect x="238.933" y="273.067" width="17.062" height="17.062"/>
<g>
</g>
<g>
</g>
<g>
</g>
<g>
</g>
<g>
</g>
<g>
</g>
<g>
</g>
<g>
</g>
<g>
</g>
<g>
</g>
<g>
</g>
<g>
</g>
<g>
</g>
<g>
</g>
<g>
</g>
</svg>
